The file '/home/user/vlog2c/aes_128/aes_rtl/obj_dir/simx.vcd' was opened successfully.
The file '/home/user/vlog2c/aes_128/aes_rtl/obj_dir/simx.vcd.vpd' was opened successfully.
The file '/home/user/vlog2c/aes_128/aes_rtl/obj_dir/simx.vcd.vpd' was opened successfully.
The file '/home/user/vlog2c/aes_128/aes_rtl/obj_dir/simx.vcd' was opened successfully.
The file '/home/user/vlog2c/aes_128/aes_rtl/obj_dir/simx.vcd.vpd' was opened successfully.
Error: [DVAP037] 
Errors while sourcing the file '/home/user/vlog2c/aes_128/aes_rtl/obj_dir/DVEfiles/session.tcl':

 Line 118: [DVSG007] 
Signal ' "V2:TOP.clk" "V2:TOP.done" "V2:TOP.key" "V2:TOP.ld" "V2:TOP.rst" "V2:TOP.text_in" "V2:TOP.text_out" "V2:TOP.v.dcnt"' cannot be found.
 Line 160: gui_list_show_data: Unable to find scope for "V2:TOP.v".
 Line 184: gui_list_select: List item(s) given by "V2:TOP.done"  were not found..
The file '/home/user/vlog2c/aes_128/aes_rtl/obj_dir/simx.vcd' was opened successfully.
The file '/home/user/vlog2c/aes_128/aes_rtl/obj_dir/simx.vcd.vpd' was opened successfully.
The file '/home/user/vlog2c/aes_128/aes_rtl/obj_dir/simx.vcd.vpd' was opened successfully.
The file '/home/user/vlog2c/aes_128/aes_rtl/obj_dir/simx.vcd' was opened successfully.
